Lensmodel.create(brand: "SONY", 	name: "Alpha 16/2.8 Fisheye", 	afdrive: "motor", ff: "1", fix: "1", mount: "A-mount", frmin: "16", frmax: "16", diafmin: "2.8", diafmax: "2.8", macro: "0", weather: "0")
Lensmodel.create(brand: "MINOLTA", 	name: "AF 16/2.8 Fisheye", 	afdrive: "motor", ff: "1", fix: "1", mount: "A-mount", frmin: "16", frmax: "16", diafmin: "2.8", diafmax: "2.8", macro: "0", weather: "0")
Lensmodel.create(brand: "SONY", 	name: "Alpha 20/2.8", 		afdrive: "motor", ff: "1", fix: "1", mount: "A-mount", frmin: "20", frmax: "20", diafmin: "2.8", diafmax: "2.8", macro: "0", weather: "0")
Lensmodel.create(brand: "MINOLTA", 	name: "AF 20/2.8 new", 		afdrive: "motor", ff: "1", fix: "1", mount: "A-mount", frmin: "20", frmax: "20", diafmin: "2.8", diafmax: "2.8", macro: "0", weather: "0")
Lensmodel.create(brand: "MINOLTA", 	name: "AF 20/2.8", 		afdrive: "motor", ff: "1", fix: "1", mount: "A-mount", frmin: "20", frmax: "20", diafmin: "2.8", diafmax: "2.8", macro: "0", weather: "0")
Lensmodel.create(brand: "Carl Zeiss", 	name: "Distagon T* 24/2 ZA SSM", afdrive: "S S M", ff: "1", fix: "1", mount: "A-mount", frmin: "24", frmax: "24", diafmin: "2.0", diafmax: "2.0", macro: "0", weather: "0")
Lensmodel.create(brand: "MINOLTA", 	name: "AF 24/2.8 new", 		afdrive: "motor", ff: "1", fix: "1", mount: "A-mount", frmin: "24", frmax: "24", diafmin: "2.8", diafmax: "2.8", macro: "0", weather: "0")
Lensmodel.create(brand: "MINOLTA", 	name: "AF 24/2.8", 		afdrive: "motor", ff: "1", fix: "1", mount: "A-mount", frmin: "24", frmax: "24", diafmin: "2.8", diafmax: "2.8", macro: "0", weather: "0")
Lensmodel.create(brand: "MINOLTA", 	name: "AF 28/2 new", afdrive: "motor", ff: "1", fix: "1", mount: "A-mount", frmin: "28", frmax: "28", diafmin: "2.0", diafmax: "2.0", macro: "0", weather: "0")
Lensmodel.create(brand: "MINOLTA", 	name: "AF 28/2", afdrive: "motor", ff: "1", fix: "1", mount: "A-mount", frmin: "28", frmax: "28", diafmin: "2.0", diafmax: "2.0", macro: "0", weather: "0")
Lensmodel.create(brand: "SONY", 	name: "Alpha 28/2.8", afdrive: "motor", ff: "1", fix: "1", mount: "A-mount", frmin: "28", frmax: "28", diafmin: "2.8", diafmax: "2.8", macro: "0", weather: "0")
Lensmodel.create(brand: "MINOLTA", 	name: "AF 28/2.8", afdrive: "motor", ff: "1", fix: "1", mount: "A-mount", frmin: "28", frmax: "28", diafmin: "2.8", diafmax: "2.8", macro: "0", weather: "0")
Lensmodel.create(brand: "SONY", 	name: "Alpha 35/1.4 G", afdrive: "motor", ff: "1", fix: "1", mount: "A-mount", frmin: "35", frmax: "35", diafmin: "1.4", diafmax: "1.4", macro: "0", weather: "0")
Lensmodel.create(brand: "MINOLTA", 	name: "AF 35/1.4 G new", afdrive: "motor", ff: "1", fix: "1", mount: "A-mount", frmin: "35", frmax: "35", diafmin: "1.4", diafmax: "1.4", macro: "0", weather: "0")
Lensmodel.create(brand: "MINOLTA", 	name: "AF 35/1.4 G", afdrive: "motor", ff: "1", fix: "1", mount: "A-mount", frmin: "35", frmax: "35", diafmin: "1.4", diafmax: "1.4", macro: "0", weather: "0")
Lensmodel.create(brand: "SONY", 	name: "Alpha DT 35/1.8 SAM", afdrive: "SAM", ff: "0", fix: "1", mount: "A-mount", frmin: "35", frmax: "35", diafmin: "1.8", diafmax: "1.8", macro: "0", weather: "0")
Lensmodel.create(brand: "MINOLTA", 	name: "AF 35/2 new", afdrive: "motor", ff: "1", fix: "1", mount: "A-mount", frmin: "35", frmax: "35", diafmin: "2.0", diafmax: "2.0", macro: "0", weather: "0")
Lensmodel.create(brand: "MINOLTA", 	name: "AF 35/2", afdrive: "motor", ff: "1", fix: "1", mount: "A-mount", frmin: "35", frmax: "35", diafmin: "2.0", diafmax: "2.0", macro: "0", weather: "0")
Lensmodel.create(brand: "Carl Zeiss", 	name: "Planar T* 50/1.4 ZA SSM", afdrive: "S S M", ff: "1", fix: "1", mount: "A-mount", frmin: "50", frmax: "50", diafmin: "1.4", diafmax: "1.4", macro: "0", weather: "1")
Lensmodel.create(brand: "SONY", 	name: "Alpha 50/1.4", afdrive: "motor", ff: "1", fix: "1", mount: "A-mount", frmin: "50", frmax: "50", diafmin: "1.4", diafmax: "1.4", macro: "0", weather: "0")
Lensmodel.create(brand: "MINOLTA", 	name: "AF 50/1.4 new", afdrive: "motor", ff: "1", fix: "1", mount: "A-mount", frmin: "50", frmax: "50", diafmin: "1.4", diafmax: "1.4", macro: "0", weather: "0")
Lensmodel.create(brand: "MINOLTA", 	name: "AF 50/1.4", afdrive: "motor", ff: "1", fix: "1", mount: "A-mount", frmin: "50", frmax: "50", diafmin: "1.4", diafmax: "1.4", macro: "0", weather: "0")
Lensmodel.create(brand: "MINOLTA", 	name: "AF 50/1.7 new", afdrive: "motor", ff: "1", fix: "1", mount: "A-mount", frmin: "50", frmax: "50", diafmin: "1.7", diafmax: "1.7", macro: "0", weather: "0")
Lensmodel.create(brand: "MINOLTA", 	name: "AF 50/1.7", afdrive: "motor", ff: "1", fix: "1", mount: "A-mount", frmin: "50", frmax: "50", diafmin: "1.7", diafmax: "1.7", macro: "0", weather: "0")
Lensmodel.create(brand: "SONY", 	name: "Alpha DT 50/1.8 SAM", afdrive: "SAM", ff: "0", fix: "1", mount: "A-mount", frmin: "50", frmax: "50", diafmin: "1.8", diafmax: "1.8", macro: "0", weather: "0")
Lensmodel.create(brand: "Carl Zeiss", 	name: "Planar T* 85/1.4 ZA", afdrive: "motor", ff: "1", fix: "1", mount: "A-mount", frmin: "85", frmax: "85", diafmin: "1.4", diafmax: "1.4", macro: "0", weather: "0")
Lensmodel.create(brand: "MINOLTA", 	name: "AF 85/1.4 G (D) Limited", afdrive: "motor", ff: "1", fix: "1", mount: "A-mount", frmin: "85", frmax: "85", diafmin: "1.4", diafmax: "1.4", macro: "0", weather: "0")
Lensmodel.create(brand: "MINOLTA", 	name: "AF 85/1.4 G (D)", afdrive: "motor", ff: "1", fix: "1", mount: "A-mount", frmin: "85", frmax: "85", diafmin: "1.4", diafmax: "1.4", macro: "0", weather: "0")
Lensmodel.create(brand: "MINOLTA", 	name: "AF 85/1.4 G", afdrive: "motor", ff: "1", fix: "1", mount: "A-mount", frmin: "85", frmax: "85", diafmin: "1.4", diafmax: "1.4", macro: "0", weather: "0")
Lensmodel.create(brand: "MINOLTA", 	name: "AF 85/1.4", afdrive: "motor", ff: "1", fix: "1", mount: "A-mount", frmin: "85", frmax: "85", diafmin: "1.4", diafmax: "1.4", macro: "0", weather: "0")
Lensmodel.create(brand: "SONY", 	name: "Alpha 85/2.8 SAM", afdrive: "SAM", ff: "1", fix: "1", mount: "A-mount", frmin: "85", frmax: "85", diafmin: "2.8", diafmax: "2.8", macro: "0", weather: "0")
Lensmodel.create(brand: "MINOLTA", 	name: "AF 100/2", afdrive: "motor", ff: "1", fix: "1", mount: "A-mount", frmin: "100", frmax: "100", diafmin: "2.0", diafmax: "2.0", macro: "0", weather: "0")
Lensmodel.create(brand: "MINOLTA", 	name: "AF 100/2.8 Soft Focus", afdrive: "motor", ff: "1", fix: "1", mount: "A-mount", frmin: "100", frmax: "100", diafmin: "2.8", diafmax: "2.8", macro: "0", weather: "0")
Lensmodel.create(brand: "Carl Zeiss", 	name: "Sonnar T* 135/1.8 ZA", afdrive: "motor", ff: "1", fix: "1", mount: "A-mount", frmin: "135", frmax: "135", diafmin: "1.8", diafmax: "1.8", macro: "0", weather: "0")
Lensmodel.create(brand: "SONY", 	name: "Alpha 135/2.8 [T4.5] STF", afdrive: "", ff: "1", fix: "1", mount: "A-mount", frmin: "135", frmax: "135", diafmin: "2.8", diafmax: "2.8", macro: "0", weather: "0")
Lensmodel.create(brand: "MINOLTA", 	name: "AF 135/2.8 [T4.5] STF", afdrive: "", ff: "1", fix: "1", mount: "A-mount", frmin: "135", frmax: "135", diafmin: "2.8", diafmax: "2.8", macro: "0", weather: "0")
Lensmodel.create(brand: "MINOLTA", name: "AF 135/2.8", afdrive: "motor", ff: "1", fix: "1", mount: "A-mount", frmin: "135", frmax: "135", diafmin: "2.8", diafmax: "2.8", macro: "0", weather: "0")
Lensmodel.create(brand: "MINOLTA", name: "AF 200/2.8 HS-APO G", afdrive: "motor", ff: "1", fix: "1", mount: "A-mount", frmin: "200", frmax: "200", diafmin: "2.8", diafmax: "2.8", macro: "0", weather: "0")
Lensmodel.create(brand: "MINOLTA", name: "AF 200/2.8 APO", afdrive: "motor", ff: "1", fix: "1", mount: "A-mount", frmin: "200", frmax: "200", diafmin: "2.8", diafmax: "2.8", macro: "0", weather: "0")
Lensmodel.create(brand: "SONY", name: "Alpha 300/2.8 G SSM II", afdrive: "S S M", ff: "1", fix: "1", mount: "A-mount", frmin: "300", frmax: "300", diafmin: "2.8", diafmax: "2.8", macro: "0", weather: "1")
Lensmodel.create(brand: "SONY", name: "Alpha 300/2.8 G", afdrive: "S S M", ff: "1", fix: "1", mount: "A-mount", frmin: "300", frmax: "300", diafmin: "2.8", diafmax: "2.8", macro: "0", weather: "0")
Lensmodel.create(brand: "MINOLTA", name: "AF 300/2.8 APO G (D) SSM", afdrive: "S S M", ff: "1", fix: "1", mount: "A-mount", frmin: "300", frmax: "300", diafmin: "2.8", diafmax: "2.8", macro: "0", weather: "0")
Lensmodel.create(brand: "MINOLTA", name: "AF 300/2.8 HS-APO G", afdrive: "motor", ff: "1", fix: "1", mount: "A-mount", frmin: "300", frmax: "300", diafmin: "2.8", diafmax: "2.8", macro: "0", weather: "0")
Lensmodel.create(brand: "MINOLTA", name: "AF 300/2.8 APO", afdrive: "motor", ff: "1", fix: "1", mount: "A-mount", frmin: "300", frmax: "300", diafmin: "2.8", diafmax: "2.8", macro: "0", weather: "0")
Lensmodel.create(brand: "MINOLTA", name: "AF 300/4 HS-APO G", afdrive: "motor", ff: "1", fix: "1", mount: "A-mount", frmin: "300", frmax: "300", diafmin: "4.0", diafmax: "4.0", macro: "0", weather: "0")
Lensmodel.create(brand: "MINOLTA", name: "AF 400/4.5 HS-APO G", afdrive: "motor", ff: "1", fix: "1", mount: "A-mount", frmin: "400", frmax: "400", diafmin: "4.5", diafmax: "4.5", macro: "0", weather: "0")
Lensmodel.create(brand: "SONY", name: "Alpha 500/4 G SSM", afdrive: "S S M", ff: "1", fix: "1", mount: "A-mount", frmin: "500", frmax: "500", diafmin: "4.0", diafmax: "4.0", macro: "0", weather: "1")
Lensmodel.create(brand: "SONY", name: "Alpha 500/8 Reflex", afdrive: "motor", ff: "1", fix: "1", mount: "A-mount", frmin: "500", frmax: "500", diafmin: "8.0", diafmax: "8.0", macro: "0", weather: "0")
Lensmodel.create(brand: "MINOLTA", name: "AF 500/8 Reflex", afdrive: "motor", ff: "1", fix: "1", mount: "A-mount", frmin: "500", frmax: "500", diafmin: "8.0", diafmax: "8.0", macro: "0", weather: "0")
Lensmodel.create(brand: "MINOLTA", name: "AF 600/4 HS-APO G", afdrive: "motor", ff: "1", fix: "1", mount: "A-mount", frmin: "600", frmax: "600", diafmin: "4.0", diafmax: "4.0", macro: "0", weather: "0")
Lensmodel.create(brand: "MINOLTA", name: "AF 600/4 APO", afdrive: "motor", ff: "1", fix: "1", mount: "A-mount", frmin: "600", frmax: "600", diafmin: "4.0", diafmax: "4.0", macro: "0", weather: "0")
Lensmodel.create(brand: "SONY", name: "Alpha DT 30/2.8 Macro SAM", afdrive: "SAM", ff: "0", fix: "1", mount: "A-mount", frmin: "30", frmax: "30", diafmin: "2.8", diafmax: "2.8", macro: "1", weather: "0")
Lensmodel.create(brand: "SONY", name: "Alpha 50/2.8 Macro", afdrive: "motor", ff: "1", fix: "1", mount: "A-mount", frmin: "50", frmax: "50", diafmin: "2.8", diafmax: "2.8", macro: "1", weather: "0")
Lensmodel.create(brand: "MINOLTA", name: "AF 50/2.8 Macro (D)", afdrive: "motor", ff: "1", fix: "1", mount: "A-mount", frmin: "50", frmax: "50", diafmin: "2.8", diafmax: "2.8", macro: "1", weather: "0")
Lensmodel.create(brand: "MINOLTA", name: "AF 50/2.8 Macro new", afdrive: "motor", ff: "1", fix: "1", mount: "A-mount", frmin: "50", frmax: "50", diafmin: "2.8", diafmax: "2.8", macro: "1", weather: "0")
Lensmodel.create(brand: "MINOLTA", name: "AF 50/2.8 Macro", afdrive: "motor", ff: "1", fix: "1", mount: "A-mount", frmin: "50", frmax: "50", diafmin: "2.8", diafmax: "2.8", macro: "1", weather: "0")
Lensmodel.create(brand: "MINOLTA", name: "AF 50/3.5 Macro", afdrive: "motor", ff: "1", fix: "1", mount: "A-mount", frmin: "50", frmax: "50", diafmin: "3.5", diafmax: "3.5", macro: "1", weather: "0")
Lensmodel.create(brand: "SONY", name: "Alpha 100/2.8 Macro", afdrive: "motor", ff: "1", fix: "1", mount: "A-mount", frmin: "100", frmax: "100", diafmin: "2.8", diafmax: "2.8", macro: "1", weather: "0")
Lensmodel.create(brand: "MINOLTA", name: "AF 100/2.8 Macro (D)", afdrive: "motor", ff: "1", fix: "1", mount: "A-mount", frmin: "100", frmax: "100", diafmin: "2.8", diafmax: "2.8", macro: "1", weather: "0")
Lensmodel.create(brand: "MINOLTA", name: "AF 100/2.8 Macro new", afdrive: "motor", ff: "1", fix: "1", mount: "A-mount", frmin: "100", frmax: "100", diafmin: "2.8", diafmax: "2.8", macro: "1", weather: "0")
Lensmodel.create(brand: "MINOLTA", name: "AF 100/2.8 Macro", afdrive: "motor", ff: "1", fix: "1", mount: "A-mount", frmin: "100", frmax: "100", diafmin: "2.8", diafmax: "2.8", macro: "1", weather: "0")
Lensmodel.create(brand: "MINOLTA", name: "AF 200/4 Macro APO G", afdrive: "motor", ff: "1", fix: "1", mount: "A-mount", frmin: "200", frmax: "200", diafmin: "4.0", diafmax: "4.0", macro: "1", weather: "0")
Lensmodel.create(brand: "SONY", name: "Alpha DT 11-18/4.5-5.6", afdrive: "motor", ff: "0", fix: "0", mount: "A-mount", frmin: "11", frmax: "18", diafmin: "4.5", diafmax: "5.6", macro: "0", weather: "0")
Lensmodel.create(brand: "MINOLTA", name: "Konica AF DT 11-18/4.5-5.6 (D)", afdrive: "motor", ff: "0", fix: "0", mount: "A-mount", frmin: "11", frmax: "18", diafmin: "4.5", diafmax: "5.6", macro: "0", weather: "0")
Lensmodel.create(brand: "Carl Zeiss", name: "Vario-Sonnar T* 16-35/2.8 ZA SSM", afdrive: "S S M", ff: "1", fix: "0", mount: "A-mount", frmin: "16", frmax: "35", diafmin: "2.8", diafmax: "2.8", macro: "0", weather: "0")
Lensmodel.create(brand: "SONY", name: "Alpha DT 16-50/2.8 SSM", afdrive: "S S M", ff: "0", fix: "0", mount: "A-mount", frmin: "16", frmax: "50", diafmin: "2.8", diafmax: "2.8", macro: "0", weather: "1")
Lensmodel.create(brand: "Carl Zeiss", name: "Vario-Sonnar T* DT 16-80/3.5-4.5 ZA", afdrive: "motor", ff: "0", fix: "0", mount: "A-mount", frmin: "16", frmax: "80", diafmin: "3.5", diafmax: "4.5", macro: "0", weather: "0")
Lensmodel.create(brand: "SONY", name: "Alpha DT 16-105/3.5-5.6", afdrive: "motor", ff: "0", fix: "0", mount: "A-mount", frmin: "16", frmax: "105", diafmin: "3.5", diafmax: "5.6", macro: "0", weather: "0")
Lensmodel.create(brand: "MINOLTA", name: "Konica AF 17-35/2.8-4 (D)", afdrive: "motor", ff: "1", fix: "0", mount: "A-mount", frmin: "17", frmax: "35", diafmin: "2.8", diafmax: "4.0", macro: "0", weather: "0")
Lensmodel.create(brand: "MINOLTA", name: "AF 17-35/3.5 G", afdrive: "motor", ff: "1", fix: "0", mount: "A-mount", frmin: "17", frmax: "35", diafmin: "3.5", diafmax: "3.5", macro: "0", weather: "0")
Lensmodel.create(brand: "SONY", name: "Alpha DT 18-55/3.5-5.6 SAM II", afdrive: "SAM", ff: "0", fix: "0", mount: "A-mount", frmin: "18", frmax: "55", diafmin: "3.5", diafmax: "5.6", macro: "0", weather: "0")
Lensmodel.create(brand: "SONY", name: "Alpha DT 18-55/3.5-5.6 SAM", afdrive: "SAM", ff: "0", fix: "0", mount: "A-mount", frmin: "18", frmax: "55", diafmin: "3.5", diafmax: "5.6", macro: "0", weather: "0")
Lensmodel.create(brand: "SONY", name: "Alpha DT 18-70/3.5-5.6", afdrive: "motor", ff: "0", fix: "0", mount: "A-mount", frmin: "18", frmax: "70", diafmin: "3.5", diafmax: "5.6", macro: "0", weather: "0")
Lensmodel.create(brand: "MINOLTA", name: "Konica AF DT 18-70/3.5-5.6 (D)", afdrive: "motor", ff: "0", fix: "0", mount: "A-mount", frmin: "18", frmax: "70", diafmin: "3.5", diafmax: "5.6", macro: "0", weather: "0")
Lensmodel.create(brand: "SONY", name: "Alpha DT 18-135/3.5-5.6 SAM", afdrive: "SAM", ff: "0", fix: "0", mount: "A-mount", frmin: "18", frmax: "135", diafmin: "3.5", diafmax: "5.6", macro: "0", weather: "0")
Lensmodel.create(brand: "SONY", name: "Alpha DT 18-200/3.5-6.3", afdrive: "motor", ff: "0", fix: "0", mount: "A-mount", frmin: "18", frmax: "200", diafmin: "3.5", diafmax: "6.3", macro: "0", weather: "0")
Lensmodel.create(brand: "MINOLTA", name: "Konica AF DT 18-200/3.5-6.3 (D)", afdrive: "motor", ff: "0", fix: "0", mount: "A-mount", frmin: "18", frmax: "200", diafmin: "3.5", diafmax: "6.3", macro: "0", weather: "0")
Lensmodel.create(brand: "SONY", name: "Alpha DT 18-250/3.5-6.3", afdrive: "motor", ff: "0", fix: "0", mount: "A-mount", frmin: "18", frmax: "250", diafmin: "3.5", diafmax: "6.3", macro: "0", weather: "0")
Lensmodel.create(brand: "MINOLTA", name: "AF 20-35/3.5-4.5", afdrive: "motor", ff: "1", fix: "0", mount: "A-mount", frmin: "20", frmax: "35", diafmin: "3.5", diafmax: "4.5", macro: "0", weather: "0")
Lensmodel.create(brand: "MINOLTA", name: "AF 24-50/4 new", afdrive: "motor", ff: "1", fix: "0", mount: "A-mount", frmin: "24", frmax: "50", diafmin: "4.0", diafmax: "4.0", macro: "0", weather: "0")
Lensmodel.create(brand: "MINOLTA", name: "AF 24-50/4", afdrive: "motor", ff: "1", fix: "0", mount: "A-mount", frmin: "24", frmax: "50", diafmin: "4.0", diafmax: "4.0", macro: "0", weather: "0")
Lensmodel.create(brand: "Carl Zeiss", name: "Vario-Sonnar T* 24-70/2.8 ZA SSM", afdrive: "S S M", ff: "1", fix: "0", mount: "A-mount", frmin: "24", frmax: "70", diafmin: "2.8", diafmax: "2.8", macro: "0", weather: "0")
Lensmodel.create(brand: "MINOLTA", name: "AF 24-85/3.5-4.5 new", afdrive: "motor", ff: "1", fix: "0", mount: "A-mount", frmin: "24", frmax: "85", diafmin: "3.5", diafmax: "4.5", macro: "0", weather: "0")
Lensmodel.create(brand: "MINOLTA", name: "AF 24-85/3.5-4.5", afdrive: "motor", ff: "1", fix: "0", mount: "A-mount", frmin: "24", frmax: "85", diafmin: "3.5", diafmax: "4.5", macro: "0", weather: "0")
Lensmodel.create(brand: "SONY", name: "Alpha 24-105/3.5-4.5", afdrive: "motor", ff: "1", fix: "0", mount: "A-mount", frmin: "24", frmax: "105", diafmin: "3.5", diafmax: "4.5", macro: "0", weather: "0")
Lensmodel.create(brand: "MINOLTA", name: "AF 24-105/3.5-4.5 (D)", afdrive: "motor", ff: "1", fix: "0", mount: "A-mount", frmin: "24", frmax: "105", diafmin: "3.5", diafmax: "4.5", macro: "0", weather: "0")
Lensmodel.create(brand: "MINOLTA", name: "AF 28-70/2.8 G", afdrive: "motor", ff: "1", fix: "0", mount: "A-mount", frmin: "28", frmax: "70", diafmin: "2.8", diafmax: "2.8", macro: "0", weather: "0")
Lensmodel.create(brand: "SONY", name: "Alpha 28-75/2.8 SAM", afdrive: "SAM", ff: "1", fix: "0", mount: "A-mount", frmin: "28", frmax: "75", diafmin: "2.8", diafmax: "2.8", macro: "0", weather: "0")
Lensmodel.create(brand: "MINOLTA", name: "Konica AF 28-75/2.8 (D)", afdrive: "motor", ff: "1", fix: "0", mount: "A-mount", frmin: "28", frmax: "75", diafmin: "2.8", diafmax: "2.8", macro: "0", weather: "0")
Lensmodel.create(brand: "MINOLTA", name: "AF 28-80/3.5-5.6 (D)", afdrive: "motor", ff: "1", fix: "0", mount: "A-mount", frmin: "28", frmax: "80", diafmin: "3.5", diafmax: "5.6", macro: "0", weather: "0")
Lensmodel.create(brand: "MINOLTA", name: "AF 28-80/3.5-5.6 II", afdrive: "motor", ff: "1", fix: "0", mount: "A-mount", frmin: "28", frmax: "80", diafmin: "3.5", diafmax: "5.6", macro: "0", weather: "0")
Lensmodel.create(brand: "MINOLTA", name: "AF 28-80/3.5-5.6", afdrive: "motor", ff: "1", fix: "0", mount: "A-mount", frmin: "28", frmax: "80", diafmin: "3.5", diafmax: "5.6", macro: "0", weather: "0")
Lensmodel.create(brand: "MINOLTA", name: "AF 28-80/4-5.6 new", afdrive: "motor", ff: "1", fix: "0", mount: "A-mount", frmin: "28", frmax: "80", diafmin: "4.0", diafmax: "5.6", macro: "1", weather: "0")
Lensmodel.create(brand: "MINOLTA", name: "AF 28-80/4-5.6 xi", afdrive: "motor", ff: "1", fix: "0", mount: "A-mount", frmin: "28", frmax: "80", diafmin: "4.0", diafmax: "5.6", macro: "0", weather: "0")
Lensmodel.create(brand: "MINOLTA", name: "AF 28-85/3.5-4.5 new", afdrive: "motor", ff: "1", fix: "0", mount: "A-mount", frmin: "28", frmax: "85", diafmin: "3.5", diafmax: "4.5", macro: "1", weather: "0")
Lensmodel.create(brand: "MINOLTA", name: "AF 28-85/3.5-4.5", afdrive: "motor", ff: "1", fix: "0", mount: "A-mount", frmin: "28", frmax: "85", diafmin: "3.5", diafmax: "4.5", macro: "1", weather: "0")
Lensmodel.create(brand: "MINOLTA", name: "AF 28-100/3.5-5.6 (D)", afdrive: "motor", ff: "1", fix: "0", mount: "A-mount", frmin: "28", frmax: "100", diafmin: "3.5", diafmax: "5.6", macro: "0", weather: "0")
Lensmodel.create(brand: "MINOLTA", name: "AF 28-105/3.5-4.5 new", afdrive: "motor", ff: "1", fix: "0", mount: "A-mount", frmin: "28", frmax: "105", diafmin: "3.5", diafmax: "4.5", macro: "0", weather: "0")
Lensmodel.create(brand: "MINOLTA", name: "AF 28-105/3.5-4.5", afdrive: "motor", ff: "1", fix: "0", mount: "A-mount", frmin: "28", frmax: "105", diafmin: "3.5", diafmax: "4.5", macro: "0", weather: "0")
Lensmodel.create(brand: "MINOLTA", name: "AF 28-105/3.5-4.5 xi", afdrive: "motor", ff: "1", fix: "0", mount: "A-mount", frmin: "28", frmax: "105", diafmin: "3.5", diafmax: "4.5", macro: "0", weather: "0")
Lensmodel.create(brand: "MINOLTA", name: "AF 28-135/4-4.5", afdrive: "motor", ff: "1", fix: "0", mount: "A-mount", frmin: "28", frmax: "135", diafmin: "4.0", diafmax: "4.5", macro: "1", weather: "0")
Lensmodel.create(brand: "MINOLTA", name: "AF 35-70/3.5-4.5 II", afdrive: "motor", ff: "1", fix: "0", mount: "A-mount", frmin: "35", frmax: "70", diafmin: "3.5", diafmax: "4.5", macro: "0", weather: "0")
Lensmodel.create(brand: "MINOLTA", name: "AF 35-70/3.5-4.5", afdrive: "motor", ff: "1", fix: "0", mount: "A-mount", frmin: "35", frmax: "70", diafmin: "3.5", diafmax: "4.5", macro: "0", weather: "0")
Lensmodel.create(brand: "MINOLTA", name: "AF 35-70/4", afdrive: "motor", ff: "1", fix: "0", mount: "A-mount", frmin: "35", frmax: "70", diafmin: "4.0", diafmax: "4.0", macro: "1", weather: "0")
Lensmodel.create(brand: "MINOLTA", name: "AF 35-80/4-5.6 II", afdrive: "motor", ff: "1", fix: "0", mount: "A-mount", frmin: "35", frmax: "80", diafmin: "4.0", diafmax: "5.6", macro: "0", weather: "0")
Lensmodel.create(brand: "MINOLTA", name: "AF 35-80/4-5.6 Power Zoom", afdrive: "motor", ff: "1", fix: "0", mount: "A-mount", frmin: "35", frmax: "80", diafmin: "4.0", diafmax: "5.6", macro: "0", weather: "0")
Lensmodel.create(brand: "MINOLTA", name: "AF 35-80/4-5.6", afdrive: "motor", ff: "1", fix: "0", mount: "A-mount", frmin: "35", frmax: "80", diafmin: "4.0", diafmax: "5.6", macro: "0", weather: "0")
Lensmodel.create(brand: "MINOLTA", name: "AF 35-105/3.5-4.5 new", afdrive: "motor", ff: "1", fix: "0", mount: "A-mount", frmin: "35", frmax: "105", diafmin: "3.5", diafmax: "4.5", macro: "0", weather: "0")
Lensmodel.create(brand: "MINOLTA", name: "AF 35-105/3.5-4.5", afdrive: "motor", ff: "1", fix: "0", mount: "A-mount", frmin: "35", frmax: "105", diafmin: "3.5", diafmax: "4.5", macro: "1", weather: "0")
Lensmodel.create(brand: "MINOLTA", name: "AF 35-200/4.5-5.6 xi", afdrive: "motor", ff: "1", fix: "0", mount: "A-mount", frmin: "35", frmax: "200", diafmin: "4.5", diafmax: "5.6", macro: "0", weather: "0")
Lensmodel.create(brand: "SONY", name: "Alpha DT 55-200/4-5.6 SAM", afdrive: "SAM", ff: "0", fix: "0", mount: "A-mount", frmin: "55", frmax: "200", diafmin: "4.0", diafmax: "5.6", macro: "0", weather: "0")
Lensmodel.create(brand: "SONY", name: "Alpha DT 55-200/4-5.6", afdrive: "motor", ff: "0", fix: "0", mount: "A-mount", frmin: "55", frmax: "200", diafmin: "4.0", diafmax: "5.6", macro: "0", weather: "0")
Lensmodel.create(brand: "SONY", name: "Alpha DT 55-300/4.5-5.6 SAM", afdrive: "SAM", ff: "0", fix: "0", mount: "A-mount", frmin: "55", frmax: "300", diafmin: "4.5", diafmax: "5.6", macro: "0", weather: "0")
Lensmodel.create(brand: "SONY", name: "Alpha 70-200/2.8 G SSM II", afdrive: "S S M", ff: "1", fix: "0", mount: "A-mount", frmin: "70", frmax: "200", diafmin: "2.8", diafmax: "2.8", macro: "0", weather: "1")
Lensmodel.create(brand: "SONY", name: "Alpha 70-200/2.8 G", afdrive: "S S M", ff: "1", fix: "0", mount: "A-mount", frmin: "70", frmax: "200", diafmin: "2.8", diafmax: "2.8", macro: "0", weather: "0")
Lensmodel.create(brand: "MINOLTA", name: "AF 70-200/2.8 APO G (D) SSM", afdrive: "S S M", ff: "1", fix: "0", mount: "A-mount", frmin: "70", frmax: "200", diafmin: "2.8", diafmax: "2.8", macro: "0", weather: "0")
Lensmodel.create(brand: "MINOLTA", name: "AF 70-210/3.5-4.5", afdrive: "motor", ff: "1", fix: "0", mount: "A-mount", frmin: "70", frmax: "210", diafmin: "3.5", diafmax: "4.5", macro: "0", weather: "0")
Lensmodel.create(brand: "MINOLTA", name: "AF 70-210/4", afdrive: "motor", ff: "1", fix: "0", mount: "A-mount", frmin: "70", frmax: "210", diafmin: "4.0", diafmax: "4.0", macro: "0", weather: "0")
Lensmodel.create(brand: "MINOLTA", name: "AF 70-210/4.5-5.6 II", afdrive: "motor", ff: "1", fix: "0", mount: "A-mount", frmin: "70", frmax: "210", diafmin: "4.5", diafmax: "5.6", macro: "0", weather: "0")
Lensmodel.create(brand: "MINOLTA", name: "AF 70-210/4.5-5.6", afdrive: "motor", ff: "1", fix: "0", mount: "A-mount", frmin: "70", frmax: "210", diafmin: "4.5", diafmax: "5.6", macro: "0", weather: "0")
Lensmodel.create(brand: "SONY", name: "Alpha 70-300/4.5-5.6 G SSM", afdrive: "S S M", ff: "1", fix: "0", mount: "A-mount", frmin: "70", frmax: "300", diafmin: "4.5", diafmax: "5.6", macro: "0", weather: "0")
Lensmodel.create(brand: "SONY", name: "Alpha 70-400/4-5.6 G SSM II", afdrive: "S S M", ff: "1", fix: "0", mount: "A-mount", frmin: "70", frmax: "400", diafmin: "4.5", diafmax: "5.6", macro: "0", weather: "0")
Lensmodel.create(brand: "SONY", name: "Alpha 70-400/4-5.6 G SSM", afdrive: "S S M", ff: "1", fix: "0", mount: "A-mount", frmin: "70", frmax: "400", diafmin: "4.5", diafmax: "5.6", macro: "0", weather: "0")
Lensmodel.create(brand: "SONY", name: "Alpha 75-300/4.5-5.6", afdrive: "motor", ff: "1", fix: "0", mount: "A-mount", frmin: "75", frmax: "300", diafmin: "4.5", diafmax: "5.6", macro: "0", weather: "0")
Lensmodel.create(brand: "MINOLTA", name: "AF 75-300/4.5-5.6 (D)", afdrive: "motor", ff: "1", fix: "0", mount: "A-mount", frmin: "75", frmax: "300", diafmin: "4.5", diafmax: "5.6", macro: "0", weather: "0")
Lensmodel.create(brand: "MINOLTA", name: "AF 75-300/4.5-5.6 II", afdrive: "motor", ff: "1", fix: "0", mount: "A-mount", frmin: "75", frmax: "300", diafmin: "4.5", diafmax: "5.6", macro: "0", weather: "0")
Lensmodel.create(brand: "MINOLTA", name: "AF 75-300/4.5-5.6 new", afdrive: "motor", ff: "1", fix: "0", mount: "A-mount", frmin: "75", frmax: "300", diafmin: "4.5", diafmax: "5.6", macro: "0", weather: "0")
Lensmodel.create(brand: "MINOLTA", name: "AF 75-300/4.5-5.6", afdrive: "motor", ff: "1", fix: "0", mount: "A-mount", frmin: "75", frmax: "300", diafmin: "4.5", diafmax: "5.6", macro: "0", weather: "0")
Lensmodel.create(brand: "MINOLTA", name: "AF 80-200/2.8 HS-APO G", afdrive: "motor", ff: "1", fix: "0", mount: "A-mount", frmin: "80", frmax: "200", diafmin: "2.8", diafmax: "2.8", macro: "0", weather: "0")
Lensmodel.create(brand: "MINOLTA", name: "AF 80-200/2.8 APO", afdrive: "motor", ff: "1", fix: "0", mount: "A-mount", frmin: "80", frmax: "200", diafmin: "2.8", diafmax: "2.8", macro: "0", weather: "0")
Lensmodel.create(brand: "MINOLTA", name: "AF 80-200/4.5-5.6 xi", afdrive: "motor", ff: "1", fix: "0", mount: "A-mount", frmin: "80", frmax: "200", diafmin: "4.5", diafmax: "5.6", macro: "0", weather: "0")
Lensmodel.create(brand: "MINOLTA", name: "AF 80-200/4.5-5.6", afdrive: "motor", ff: "1", fix: "0", mount: "A-mount", frmin: "80", frmax: "200", diafmin: "4.5", diafmax: "5.6", macro: "0", weather: "0")
Lensmodel.create(brand: "MINOLTA", name: "AF 100-200/4.5", afdrive: "motor", ff: "1", fix: "0", mount: "A-mount", frmin: "100", frmax: "200", diafmin: "4.5", diafmax: "4.5", macro: "0", weather: "0")
Lensmodel.create(brand: "MINOLTA", name: "AF 100-300/4.5-5.6 APO (D)", afdrive: "motor", ff: "1", fix: "0", mount: "A-mount", frmin: "100", frmax: "300", diafmin: "4.5", diafmax: "5.6", macro: "0", weather: "0")
Lensmodel.create(brand: "MINOLTA", name: "AF 100-300/4.5-5.6 APO new", afdrive: "motor", ff: "1", fix: "0", mount: "A-mount", frmin: "100", frmax: "300", diafmin: "4.5", diafmax: "5.6", macro: "0", weather: "0")
Lensmodel.create(brand: "MINOLTA", name: "AF 100-300/4.5-5.6 APO", afdrive: "motor", ff: "1", fix: "0", mount: "A-mount", frmin: "100", frmax: "300", diafmin: "4.5", diafmax: "5.6", macro: "0", weather: "0")
Lensmodel.create(brand: "MINOLTA", name: "AF 100-300/4.5-5.6 xi", afdrive: "motor", ff: "1", fix: "0", mount: "A-mount", frmin: "100", frmax: "300", diafmin: "4.5", diafmax: "5.6", macro: "0", weather: "0")
Lensmodel.create(brand: "MINOLTA", name: "AF 100-300/4.5-5.6", afdrive: "motor", ff: "1", fix: "0", mount: "A-mount", frmin: "100", frmax: "300", diafmin: "4.5", diafmax: "5.6", macro: "0", weather: "0")
Lensmodel.create(brand: "MINOLTA", name: "AF 100-400/4.5-6.7 APO", afdrive: "motor", ff: "1", fix: "0", mount: "A-mount", frmin: "100", frmax: "400", diafmin: "4.5", diafmax: "6.7", macro: "0", weather: "0")
Lensmodel.create(brand: "SONY", name: "E 16/2.8", afdrive: "SAM", ff: "0", fix: "1", mount: "E-mount", frmin: "16", frmax: "16", diafmin: "2.8", diafmax: "2.8", macro: "0", weather: "0")
Lensmodel.create(brand: "SONY", name: "E 20/2.8", afdrive: "S S M", ff: "0", fix: "1", mount: "E-mount", frmin: "20", frmax: "20", diafmin: "2.8", diafmax: "2.8", macro: "0", weather: "0")
Lensmodel.create(brand: "Carl Zeiss", name: "Sonnar T* E 24/1.8 ZA", afdrive: "S S M", ff: "0", fix: "1", mount: "E-mount", frmin: "24", frmax: "24", diafmin: "1.8", diafmax: "1.8", macro: "0", weather: "0")
Lensmodel.create(brand: "SONY", name: "E 35/1.8 OSS", afdrive: "S S M", ff: "0", fix: "1", mount: "E-mount", frmin: "35", frmax: "35", diafmin: "1.8", diafmax: "1.8", macro: "0", weather: "0")
Lensmodel.create(brand: "Carl Zeiss", name: "Sonnar T* FE 35/2.8 ZA", afdrive: "S S M", ff: "0", fix: "1", mount: "E-mount", frmin: "35", frmax: "35", diafmin: "2.8", diafmax: "2.8", macro: "0", weather: "1")
Lensmodel.create(brand: "SONY", name: "E 50/1.8 OSS", afdrive: "S S M", ff: "0", fix: "1", mount: "E-mount", frmin: "50", frmax: "50", diafmin: "1.8", diafmax: "1.8", macro: "0", weather: "0")
Lensmodel.create(brand: "Carl Zeiss", name: "Sonnar T* FE 55/1.8 ZA", afdrive: "S S M", ff: "0", fix: "1", mount: "E-mount", frmin: "55", frmax: "55", diafmin: "1.8", diafmax: "1.8", macro: "0", weather: "1")
Lensmodel.create(brand: "SONY", name: "E 30/3.5 Macro", afdrive: "S S M", ff: "0", fix: "1", mount: "E-mount", frmin: "30", frmax: "30", diafmin: "3.5", diafmax: "3.5", macro: "0", weather: "0")
Lensmodel.create(brand: "SONY", name: "E 10-18/4 OSS", afdrive: "?", ff: "0", fix: "0", mount: "E-mount", frmin: "10", frmax: "18", diafmin: "4.0", diafmax: "4.0", macro: "0", weather: "0")
Lensmodel.create(brand: "SONY", name: "E PZ 16-50/3.5-5.6 OSS", afdrive: "SAM", ff: "0", fix: "0", mount: "E-mount", frmin: "16", frmax: "50", diafmin: "3.5", diafmax: "5.6", macro: "0", weather: "0")
Lensmodel.create(brand: "Carl Zeiss", name: "Vario-Tessar T* E 16-70/4 ZA OSS", afdrive: "S S M", ff: "0", fix: "0", mount: "E-mount", frmin: "16", frmax: "70", diafmin: "4.0", diafmax: "4.0", macro: "0", weather: "0")
Lensmodel.create(brand: "SONY", name: "E 18-50/4-5.6", afdrive: "?", ff: "0", fix: "0", mount: "E-mount", frmin: "18", frmax: "50", diafmin: "4.0", diafmax: "5.6", macro: "0", weather: "0")
Lensmodel.create(brand: "SONY", name: "E 18-55/3.5-5.6 OSS", afdrive: "SAM", ff: "0", fix: "0", mount: "E-mount", frmin: "18", frmax: "55", diafmin: "3.5", diafmax: "5.6", macro: "0", weather: "0")
Lensmodel.create(brand: "SONY", name: "E PZ 18-105/4 G OSS", afdrive: "S S M", ff: "0", fix: "0", mount: "E-mount", frmin: "18", frmax: "105", diafmin: "4.0", diafmax: "4.0", macro: "0", weather: "0")
Lensmodel.create(brand: "SONY", name: "E PZ 18-200/3.5-6.3 OSS", afdrive: "S S M", ff: "0", fix: "0", mount: "E-mount", frmin: "18", frmax: "200", diafmin: "3.5", diafmax: "6.3", macro: "0", weather: "0")
Lensmodel.create(brand: "SONY", name: "E 18-200/3.5-6.3 OSS LE", afdrive: "S S M", ff: "0", fix: "0", mount: "E-mount", frmin: "18", frmax: "200", diafmin: "3.5", diafmax: "6.3", macro: "0", weather: "0")
Lensmodel.create(brand: "SONY", name: "E 18-200/3.5-6.3 OSS", afdrive: "S S M", ff: "0", fix: "0", mount: "E-mount", frmin: "18", frmax: "200", diafmin: "3.5", diafmax: "6.3", macro: "0", weather: "0")
Lensmodel.create(brand: "Carl Zeiss", name: "Vario-Tessar T* FE 24-70/4 ZA OSS", afdrive: "?", ff: "0", fix: "0", mount: "E-mount", frmin: "24", frmax: "70", diafmin: "4.0", diafmax: "4.0", macro: "0", weather: "1")
Lensmodel.create(brand: "SONY", name: "FE 28-70/3.5-5.6 OSS", afdrive: "S S M", ff: "1", fix: "0", mount: "E-mount", frmin: "28", frmax: "70", diafmin: "3.5", diafmax: "5.6", macro: "0", weather: "1")
Lensmodel.create(brand: "SONY", name: "E 55-210/4.5-6.3 OSS", afdrive: "S S M", ff: "0", fix: "0", mount: "E-mount", frmin: "55", frmax: "210", diafmin: "4.5", diafmax: "6.3", macro: "0", weather: "0")
Lensmodel.create(brand: "SONY", name: "FE 70-200/4 G OSS", afdrive: "S S M", ff: "1", fix: "0", mount: "E-mount", frmin: "70", frmax: "200", diafmin: "4.0", diafmax: "4.0", macro: "0", weather: "1")
Lensmodel.create(brand: "Samyang", name: "10mm 1:2.8 ED AS NCS CS", afdrive: "0", ff: "0", fix: "1", mount: "A-mount", frmin: "10", frmax: "10", diafmin: "2.8", diafmax: "2.8")
Lensmodel.create(brand: "Samyang", name: "10mm T3.1 ED AS NCS CS VDSLR", afdrive: "0", ff: "1", fix: "1", mount: "A-mount", frmin: "10", frmax: "10", diafmin: "3.1", diafmax: "3.1")
Lensmodel.create(brand: "Samyang", name: "14mm f/2.8 ED AS IF UMC ", afdrive: "0", ff: "1", fix: "1", mount: "A-mount", frmin: "14", frmax: "14", diafmin: "2.8", diafmax: "2.8")
Lensmodel.create(brand: "Samyang", name: "14mm T3.1 ED AS IF UMC VDSLR", afdrive: "0", ff: "1", fix: "1", mount: "A-mount", frmin: "14", frmax: "14", diafmin: "3.1", diafmax: "3.1")
Lensmodel.create(brand: "Samyang", name: "16mm f/2.0 ED AS UMC CS", afdrive: "0", ff: "0", fix: "1", mount: "A-mount", frmin: "16", frmax: "16", diafmin: "2.0", diafmax: "2.0")
Lensmodel.create(brand: "Samyang", name: "16mm T2.2 ED AS UMC CS VDSLR", afdrive: "0", ff: "1", fix: "1", mount: "A-mount", frmin: "16", frmax: "16", diafmin: "2.2", diafmax: "2.2")
Lensmodel.create(brand: "Samyang", name: "24mm f/1.4 ED AS UMC", afdrive: "0", ff: "1", fix: "1", mount: "A-mount", frmin: "24", frmax: "24", diafmin: "1.4", diafmax: "1.4")
Lensmodel.create(brand: "Samyang", name: "24mm f/3.5 ED AS UMC T-S", afdrive: "0", ff: "1", fix: "1", mount: "A-mount", frmin: "24", frmax: "24", diafmin: "3.5", diafmax: "3.5")
Lensmodel.create(brand: "Samyang", name: "24mm T1.5 ED AS UMC VDSLR", afdrive: "0", ff: "1", fix: "1", mount: "A-mount", frmin: "24", frmax: "24", diafmin: "1.5", diafmax: "1.5")
Lensmodel.create(brand: "Samyang", name: "300mm f/6.3 ED UMC CS Reflex Mirror Lens", afdrive: "0", ff: "1", fix: "1", mount: "A-mount", frmin: "300", frmax: "300", diafmin: "6.3", diafmax: "6.3")
Lensmodel.create(brand: "Samyang", name: "35mm f/1.4 ED AS UMC", afdrive: "0", ff: "1", fix: "1", mount: "A-mount", frmin: "35", frmax: "35", diafmin: "1.4", diafmax: "1.4")
Lensmodel.create(brand: "Samyang", name: "35mm T1.5 ED AS UMC VDSLR", afdrive: "0", ff: "1", fix: "1", mount: "A-mount", frmin: "35", frmax: "35", diafmin: "1.5", diafmax: "1.5")
Lensmodel.create(brand: "Samyang", name: "500mm f/6.3 MC IF Mirror", afdrive: "0", ff: "1", fix: "1", mount: "A-mount", frmin: "500", frmax: "500", diafmin: "6.3", diafmax: "6.3")
Lensmodel.create(brand: "Samyang", name: "50mm f/1.4 AS UMC", afdrive: "0", ff: "1", fix: "1", mount: "A-mount", frmin: "50", frmax: "50", diafmin: "1.4", diafmax: "1.4")
Lensmodel.create(brand: "Samyang", name: "50mm T1.5 AS UMC VDSLR Sony A", afdrive: "0", ff: "1", fix: "1", mount: "A-mount", frmin: "50", frmax: "50", diafmin: "1.5", diafmax: "1.5")
Lensmodel.create(brand: "Samyang", name: "650-1300mm f/8.0-16.0 MC IF", afdrive: "0", ff: "1", fix: "0", mount: "A-mount", frmin: "650", frmax: "1300", diafmin: "8.0", diafmax: "16.0")
Lensmodel.create(brand: "Samyang", name: "800mm f/8.0 MC IF Mirror", afdrive: "0", ff: "1", fix: "1", mount: "A-mount", frmin: "800", frmax: "800", diafmin: "8.0", diafmax: "8.0")
Lensmodel.create(brand: "Samyang", name: "85mm f/1.4 AS IF", afdrive: "0", ff: "1", fix: "1", mount: "A-mount", frmin: "85", frmax: "85", diafmin: "1.4", diafmax: "1.4")
Lensmodel.create(brand: "Samyang", name: "85mm T1.5 AS IF UMC VDSLR", afdrive: "0", ff: "1", fix: "1", mount: "A-mount", frmin: "85", frmax: "85", diafmin: "1.5", diafmax: "1.5")
Lensmodel.create(brand: "Samyang", name: "8mm f/3.5 AS IF MC Fish-eye CS", afdrive: "0", ff: "0", fix: "1", mount: "A-mount", frmin: "8", frmax: "8", diafmin: "3.5", diafmax: "3.5")
Lensmodel.create(brand: "Samyang", name: "8mm f/3.5 AS IF UMC Fish-eye CS II", afdrive: "0", ff: "1", fix: "1", mount: "A-mount", frmin: "8", frmax: "8", diafmin: "3.5", diafmax: "3.5")
Lensmodel.create(brand: "Samyang", name: "8mm T3.8 AS IF UMC Fish-eye CS II VDSLR", afdrive: "0", ff: "1", fix: "1", mount: "A-mount", frmin: "8", frmax: "8", diafmin: "3.8", diafmax: "3.8")
Lensmodel.create(brand: "Sigma", name: "18-300mm f/3.5-6.3 DC Macro HSM Contemporary", afdrive: "1", ff: "0", fix: "0", mount: "A-mount", frmin: "18", frmax: "18", diafmin: "3.5", diafmax: "6.3")
Lensmodel.create(brand: "Sigma", name: "AF 10-20mm f/3.5 EX DC HSM", afdrive: "1", ff: "0", fix: "0", mount: "A-mount", frmin: "10", frmax: "20", diafmin: "3.5", diafmax: "3.5")
Lensmodel.create(brand: "Sigma", name: "AF 10-20mm f/4-5.6 EX DC", afdrive: "1", ff: "0", fix: "0", mount: "A-mount", frmin: "10", frmax: "20", diafmin: "4.0", diafmax: "5.6")
Lensmodel.create(brand: "Sigma", name: "AF 105mm f/2.8 EX DG OS HSM Macro", afdrive: "1", ff: "1", fix: "1", mount: "A-mount", frmin: "105", frmax: "105", diafmin: "2.8", diafmax: "2.8")
Lensmodel.create(brand: "Sigma", name: "AF 10mm f/2.8 EX DC HSM Fisheye", afdrive: "1", ff: "0", fix: "1", mount: "A-mount", frmin: "10", frmax: "10", diafmin: "2.8", diafmax: "2.8")
Lensmodel.create(brand: "Sigma", name: "AF 12-24mm f/4.5-5.6 DG HSM II", afdrive: "1", ff: "1", fix: "0", mount: "A-mount", frmin: "12", frmax: "24", diafmin: "4.5", diafmax: "5.6")
Lensmodel.create(brand: "Sigma", name: "AF 150-500mm f/5-6.3 APO DG OS HSM", afdrive: "1", ff: "1", fix: "0", mount: "A-mount", frmin: "150", frmax: "500", diafmin: "5.0", diafmax: "6.3")
Lensmodel.create(brand: "Sigma", name: "AF 150-600mm f/5.0-6.3 DG OS HSM Contemporary", afdrive: "1", ff: "1", fix: "0", mount: "A-mount", frmin: "150", frmax: "600", diafmin: "5.0", diafmax: "6.3")
Lensmodel.create(brand: "Sigma", name: "AF 150mm f/2.8 EX DG OS HSM APO Macro", afdrive: "1", ff: "1", fix: "1", mount: "A-mount", frmin: "150", frmax: "150", diafmin: "2.8", diafmax: "2.8")
Lensmodel.create(brand: "Sigma", name: "AF 15mm f/2.8 EX DG DIAGONAL FISHEYE", afdrive: "1", ff: "1", fix: "1", mount: "A-mount", frmin: "15", frmax: "15", diafmin: "2.8", diafmax: "2.8")
Lensmodel.create(brand: "Sigma", name: "AF 17-50mm f/2.8 EX DC HSM", afdrive: "1", ff: "0", fix: "0", mount: "A-mount", frmin: "17", frmax: "50", diafmin: "2.8", diafmax: "2.8")
Lensmodel.create(brand: "Sigma", name: "AF 17-50mm f/2.8 EX DC OS HSM SA", afdrive: "1", ff: "0", fix: "0", mount: "A-mount", frmin: "17", frmax: "50", diafmin: "2.8", diafmax: "2.8")
Lensmodel.create(brand: "Sigma", name: "AF 17-70mm f/2.8-4.0 DC MACRO HSM new Contemporary", afdrive: "1", ff: "0", fix: "0", mount: "A-mount", frmin: "17", frmax: "70", diafmin: "2.8", diafmax: "4.0")
Lensmodel.create(brand: "Sigma", name: "AF 18-125mm f/3.8-5.6 DC HSM", afdrive: "1", ff: "0", fix: "0", mount: "A-mount", frmin: "18", frmax: "125", diafmin: "3.8", diafmax: "5.6")
Lensmodel.create(brand: "Sigma", name: "AF 18-200mm f/3.5-6.3 DC Macro OS HSM Contemporary", afdrive: "1", ff: "0", fix: "0", mount: "A-mount", frmin: "18", frmax: "200", diafmin: "3.5", diafmax: "6.3")
Lensmodel.create(brand: "Sigma", name: "AF 18-200mm f/3.5-6.3 II DC HSM", afdrive: "1", ff: "0", fix: "0", mount: "A-mount", frmin: "18", frmax: "200", diafmin: "3.5", diafmax: "6.3")
Lensmodel.create(brand: "Sigma", name: "AF 18-250mm f/3.5-6.3 DC OS HSM Macro", afdrive: "1", ff: "0", fix: "0", mount: "A-mount", frmin: "18", frmax: "250", diafmin: "3.5", diafmax: "6.3")
Lensmodel.create(brand: "Sigma", name: "AF 18-35mm f/1.8 DC HSM Art", afdrive: "1", ff: "0", fix: "0", mount: "A-mount", frmin: "18", frmax: "35", diafmin: "1.8", diafmax: "1.8")
Lensmodel.create(brand: "Sigma", name: "AF 18-50mm f/2.8 EX DC MACRO", afdrive: "1", ff: "0", fix: "0", mount: "A-mount", frmin: "18", frmax: "50", diafmin: "2.8", diafmax: "2.8")
Lensmodel.create(brand: "Sigma", name: "AF 180mm f/2.8 APO EX DG OS HSM Macro", afdrive: "1", ff: "1", fix: "1", mount: "A-mount", frmin: "180", frmax: "180", diafmin: "2.8", diafmax: "2.8")
Lensmodel.create(brand: "Sigma", name: "AF 20mm f/1.8 EX DG ASPHERICAL RF", afdrive: "1", ff: "1", fix: "1", mount: "A-mount", frmin: "20", frmax: "20", diafmin: "1.8", diafmax: "1.8")
Lensmodel.create(brand: "Sigma", name: "AF 24-105mm f/4 DG HSM Art", afdrive: "1", ff: "1", fix: "0", mount: "A-mount", frmin: "24", frmax: "105", diafmin: "4.0", diafmax: "4.0")
Lensmodel.create(brand: "Sigma", name: "AF 24-70mm f/2.8 IF EX DG ASPHERICAL HSM", afdrive: "1", ff: "1", fix: "0", mount: "A-mount", frmin: "24", frmax: "70", diafmin: "2.8", diafmax: "2.8")
Lensmodel.create(brand: "Sigma", name: "AF 24mm f/1.8 EX DG ASPHERICAL MACRO", afdrive: "1", ff: "1", fix: "1", mount: "A-mount", frmin: "24", frmax: "24", diafmin: "1.8", diafmax: "1.8")
Lensmodel.create(brand: "Sigma", name: "AF 28mm f/1.8 EX DG ASPHERICAL MACRO", afdrive: "1", ff: "1", fix: "1", mount: "A-mount", frmin: "28", frmax: "28", diafmin: "1.8", diafmax: "1.8")
Lensmodel.create(brand: "Sigma", name: "AF 300mm f/2.8 EX DG APO", afdrive: "1", ff: "1", fix: "1", mount: "A-mount", frmin: "300", frmax: "300", diafmin: "2.8", diafmax: "2.8")
Lensmodel.create(brand: "Sigma", name: "AF 30mm f/1.4 EX DC", afdrive: "1", ff: "0", fix: "1", mount: "A-mount", frmin: "30", frmax: "30", diafmin: "1.4", diafmax: "1.4")
Lensmodel.create(brand: "Sigma", name: "AF 35mm f/1.4 DG HSM Art", afdrive: "1", ff: "1", fix: "1", mount: "A-mount", frmin: "35", frmax: "35", diafmin: "1.4", diafmax: "1.4")
Lensmodel.create(brand: "Sigma", name: "AF 4.5mm f/2.8 EX DC HSM Circular Fisheye", afdrive: "1", ff: "0", fix: "1", mount: "A-mount", frmin: "4", frmax: "4", diafmin: "2.8", diafmax: "2.8")
Lensmodel.create(brand: "Sigma", name: "AF 50-200mm f/4-5.6 DC HSM", afdrive: "1", ff: "0", fix: "0", mount: "A-mount", frmin: "50", frmax: "200", diafmin: "4.0", diafmax: "5.6")
Lensmodel.create(brand: "Sigma", name: "AF 50-500mm f/4.5-6.3 APO DG OS HSM", afdrive: "1", ff: "1", fix: "0", mount: "A-mount", frmin: "50", frmax: "500", diafmin: "4.5", diafmax: "6.3")
Lensmodel.create(brand: "Sigma", name: "AF 500mm f/4.5 EX DG APO", afdrive: "1", ff: "1", fix: "1", mount: "A-mount", frmin: "500", frmax: "500", diafmin: "4.5", diafmax: "4.5")
Lensmodel.create(brand: "Sigma", name: "AF 50mm f/1.4 DG HSM Art", afdrive: "1", ff: "1", fix: "1", mount: "A-mount", frmin: "50", frmax: "50", diafmin: "1.4", diafmax: "1.4")
Lensmodel.create(brand: "Sigma", name: "AF 50mm f/1.4 EX DG HSM", afdrive: "1", ff: "1", fix: "1", mount: "A-mount", frmin: "50", frmax: "50", diafmin: "1.4", diafmax: "1.4")
Lensmodel.create(brand: "Sigma", name: "AF 50mm f/2.8 EX DG MACRO", afdrive: "1", ff: "1", fix: "1", mount: "A-mount", frmin: "50", frmax: "50", diafmin: "2.8", diafmax: "2.8")
Lensmodel.create(brand: "Sigma", name: "AF 70-200mm f/2.8 APO EX DG OS HSM", afdrive: "1", ff: "1", fix: "0", mount: "A-mount", frmin: "70", frmax: "200", diafmin: "2.8", diafmax: "2.8")
Lensmodel.create(brand: "Sigma", name: "AF 70-300mm f/4-5.6 APO Macro DG", afdrive: "1", ff: "1", fix: "0", mount: "A-mount", frmin: "70", frmax: "300", diafmin: "4.0", diafmax: "5.6")
Lensmodel.create(brand: "Sigma", name: "AF 70-300mm f/4-5.6 DG MACRO", afdrive: "1", ff: "1", fix: "0", mount: "A-mount", frmin: "70", frmax: "300", diafmin: "4.0", diafmax: "5.6")
Lensmodel.create(brand: "Sigma", name: "AF 70mm f/2.8 Macro EX DG", afdrive: "1", ff: "1", fix: "1", mount: "A-mount", frmin: "70", frmax: "70", diafmin: "2.8", diafmax: "2.8")
Lensmodel.create(brand: "Sigma", name: "AF 8-16mm f/4.5-5.6 DC HSM", afdrive: "1", ff: "0", fix: "0", mount: "A-mount", frmin: "8", frmax: "16", diafmin: "4.5", diafmax: "5.6")
Lensmodel.create(brand: "Sigma", name: "AF 85mm f/1.4 EX DG HSM", afdrive: "1", ff: "1", fix: "1", mount: "A-mount", frmin: "85", frmax: "85", diafmin: "1.4", diafmax: "1.4")
Lensmodel.create(brand: "Tamron", name: "16-300mm f/3.5-6.3 Di II VC PZD", afdrive: "1", ff: "0", fix: "0", mount: "A-mount", frmin: "16", frmax: "300", diafmin: "3.5", diafmax: "6.3")
Lensmodel.create(brand: "Tamron", name: "AF 18-200mm f/3.5-6.3 XR Di II LD Aspherical (IF) MACRO", afdrive: "1", ff: "0", fix: "0", mount: "A-mount", frmin: "18", frmax: "200", diafmin: "3.5", diafmax: "6.3")
Lensmodel.create(brand: "Tamron", name: "AF 18-270mm f/3.5-6.3 Di II PZD", afdrive: "1", ff: "0", fix: "0", mount: "A-mount", frmin: "18", frmax: "270", diafmin: "3.5", diafmax: "6.3")
Lensmodel.create(brand: "Tamron", name: "AF 28-300mm f/3.5-6.3 XR Di LD Aspherical (IF) MACRO", afdrive: "1", ff: "1", fix: "0", mount: "A-mount", frmin: "28", frmax: "300", diafmin: "3.5", diafmax: "6.3")
Lensmodel.create(brand: "Tamron", name: "AF 55-200mm f/4-5,6 Di II LD MACRO", afdrive: "1", ff: "0", fix: "0", mount: "A-mount", frmin: "55", frmax: "200", diafmin: "4.0", diafmax: "5.6")
Lensmodel.create(brand: "Tamron", name: "AF 70-300mm f/4-5.6 Di LD MACRO 1:2", afdrive: "1", ff: "1", fix: "0", mount: "A-mount", frmin: "70", frmax: "300", diafmin: "4.0", diafmax: "5.6")
Lensmodel.create(brand: "Tamron", name: "AF SP 24-70mm f/2.8 DI USD", afdrive: "1", ff: "1", fix: "0", mount: "A-mount", frmin: "24", frmax: "70", diafmin: "2.8", diafmax: "2.8")
Lensmodel.create(brand: "Tamron", name: "SP AF 10-24mm f/3.5-4.5 Di II LD Aspherical (IF)", afdrive: "1", ff: "0", fix: "0", mount: "A-mount", frmin: "10", frmax: "24", diafmin: "3.5", diafmax: "4.5")
Lensmodel.create(brand: "Tamron", name: "SP AF 150-600mm f/5-6.3 Di USD", afdrive: "1", ff: "1", fix: "0", mount: "A-mount", frmin: "150", frmax: "600", diafmin: "5.0", diafmax: "6.3")
Lensmodel.create(brand: "Tamron", name: "SP AF 17-50mm f/2.8 XR Di II LD Aspherical (IF)", afdrive: "1", ff: "0", fix: "0", mount: "A-mount", frmin: "17", frmax: "50", diafmin: "2.8", diafmax: "2.8")
Lensmodel.create(brand: "Tamron", name: "SP AF 180mm f/3.5 Di LD (IF) 1:1 Macro", afdrive: "1", ff: "1", fix: "1", mount: "A-mount", frmin: "180", frmax: "180", diafmin: "3.5", diafmax: "3.5")
Lensmodel.create(brand: "Tamron", name: "SP AF 200-500mm f/5-6.3 Di LD (IF)", afdrive: "1", ff: "1", fix: "0", mount: "A-mount", frmin: "200", frmax: "500", diafmin: "5.0", diafmax: "6.3")
Lensmodel.create(brand: "Tamron", name: "SP AF 28-75mm f/2.8 XR Di LD Aspherical (IF)", afdrive: "1", ff: "1", fix: "0", mount: "A-mount", frmin: "28", frmax: "75", diafmin: "2.8", diafmax: "2.8")
Lensmodel.create(brand: "Tamron", name: "SP AF 60mm f/2.0 Di II LD Macro", afdrive: "1", ff: "0", fix: "1", mount: "A-mount", frmin: "60", frmax: "60", diafmin: "2.0", diafmax: "2.0")
Lensmodel.create(brand: "Tamron", name: "SP AF 70-200mm f/2.8 Di LD (IF) Macro", afdrive: "1", ff: "1", fix: "0", mount: "A-mount", frmin: "70", frmax: "200", diafmin: "2.8", diafmax: "2.8")
Lensmodel.create(brand: "Tamron", name: "SP AF 70-200mm f/2.8 Di USD", afdrive: "1", ff: "1", fix: "0", mount: "A-mount", frmin: "70", frmax: "200", diafmin: "2.8", diafmax: "2.8")
Lensmodel.create(brand: "Tamron", name: "SP AF 70-300mm f/4.0-5.6 Di USD", afdrive: "1", ff: "1", fix: "0", mount: "A-mount", frmin: "70", frmax: "300", diafmin: "4.0", diafmax: "5.6")
Lensmodel.create(brand: "Tamron", name: "SP AF 90mm f/2.8 Di MACRO 1:1", afdrive: "1", ff: "1", fix: "1", mount: "A-mount", frmin: "90", frmax: "90", diafmin: "2.8", diafmax: "2.8")
Lensmodel.create(brand: "Tamron", name: "SP AF 90mm f/2.8 Di VC USD", afdrive: "1", ff: "1", fix: "1", mount: "A-mount", frmin: "90", frmax: "90", diafmin: "2.8", diafmax: "2.8")
Lensmodel.create(brand: "Tamron", name: "28-300mm f/3.5-6.3 Di PZD", afdrive: "1", ff: "1", fix: "0", mount: "A-mount", frmin: "28", frmax: "300", diafmin: "3.5", diafmax: "6.3")
Lensmodel.create(brand: "Samyang", name: "10mm 1:2.8 ED AS NCS CS", afdrive: "0", ff: "0", fix: "1", mount: "E-mount", frmin: "10", frmax: "10", diafmin: "2.8", diafmax: "2.8")
Lensmodel.create(brand: "Samyang", name: "10mm T3.1 ED AS NCS CS VDSLR", afdrive: "0", ff: "1", fix: "1", mount: "E-mount", frmin: "10", frmax: "10", diafmin: "3.1", diafmax: "3.1")
Lensmodel.create(brand: "Samyang", name: "12mm f/2.0 NCS CS", afdrive: "0", ff: "1", fix: "1", mount: "E-mount", frmin: "12", frmax: "12", diafmin: "2.0", diafmax: "2.0")
Lensmodel.create(brand: "Samyang", name: "12mm T2.2 NCS CS VDSLR", afdrive: "0", ff: "0", fix: "1", mount: "E-mount", frmin: "12", frmax: "12", diafmin: "2.2", diafmax: "2.2")
Lensmodel.create(brand: "Samyang", name: "14mm f/2.8 ED AS IF UMC", afdrive: "0", ff: "1", fix: "1", mount: "E-mount", frmin: "14", frmax: "14", diafmin: "2.8", diafmax: "2.8")
Lensmodel.create(brand: "Samyang", name: "14mm T3.1 ED AS IF UMC VDSLR", afdrive: "0", ff: "0", fix: "1", mount: "E-mount", frmin: "14", frmax: "14", diafmin: "3.1", diafmax: "3.1")
Lensmodel.create(brand: "Samyang", name: "16mm f/2.0 ED AS UMC CS", afdrive: "0", ff: "0", fix: "1", mount: "E-mount", frmin: "16", frmax: "16", diafmin: "2.0", diafmax: "2.0")
Lensmodel.create(brand: "Samyang", name: "16mm T2.2 ED AS UMC CS VDSLR", afdrive: "0", ff: "0", fix: "1", mount: "E-mount", frmin: "16", frmax: "16", diafmin: "2.2", diafmax: "2.2")
Lensmodel.create(brand: "Samyang", name: "24mm f/1.4 ED AS UMC", afdrive: "0", ff: "1", fix: "1", mount: "E-mount", frmin: "24", frmax: "24", diafmin: "1.4", diafmax: "1.4")
Lensmodel.create(brand: "Samyang", name: "24mm f/3.5 ED AS UMC T-S", afdrive: "0", ff: "1", fix: "1", mount: "E-mount", frmin: "24", frmax: "24", diafmin: "3.5", diafmax: "3.5")
Lensmodel.create(brand: "Samyang", name: "24mm T1.5 ED AS UMC VDSLR", afdrive: "0", ff: "0", fix: "1", mount: "E-mount", frmin: "24", frmax: "24", diafmin: "1.5", diafmax: "1.5")
Lensmodel.create(brand: "Samyang", name: "300mm f/6.3 ED UMC CS Reflex Mirror Lens", afdrive: "0", ff: "0", fix: "1", mount: "E-mount", frmin: "300", frmax: "300", diafmin: "6.3", diafmax: "6.3")
Lensmodel.create(brand: "Samyang", name: "35mm f/1.4 ED AS UMC", afdrive: "0", ff: "1", fix: "1", mount: "E-mount", frmin: "35", frmax: "35", diafmin: "1.4", diafmax: "1.4")
Lensmodel.create(brand: "Samyang", name: "35mm T1.5 ED AS UMC VDSLR", afdrive: "0", ff: "0", fix: "1", mount: "E-mount", frmin: "35", frmax: "35", diafmin: "1.5", diafmax: "1.5")
Lensmodel.create(brand: "Samyang", name: "50mm f/1.4 AS UMC", afdrive: "0", ff: "1", fix: "1", mount: "E-mount", frmin: "50", frmax: "50", diafmin: "1.4", diafmax: "1.4")
Lensmodel.create(brand: "Samyang", name: "50mm T1.5 AS UMC VDSLR", afdrive: "0", ff: "1", fix: "1", mount: "E-mount", frmin: "50", frmax: "50", diafmin: "1.5", diafmax: "1.5")
Lensmodel.create(brand: "Samyang", name: "85mm T1.5 AS IF UMC VDSLR", afdrive: "0", ff: "0", fix: "1", mount: "E-mount", frmin: "85", frmax: "85", diafmin: "1.5", diafmax: "1.5")
Lensmodel.create(brand: "Samyang", name: "8mm f/2.8 UMC Fish-eye", afdrive: "0", ff: "0", fix: "1", mount: "E-mount", frmin: "8", frmax: "8", diafmin: "2.8", diafmax: "2.8")
Lensmodel.create(brand: "Samyang", name: "8mm T3.1 V-DSLR UMC Fish-eye II", afdrive: "0", ff: "0", fix: "1", mount: "E-mount", frmin: "8", frmax: "8", diafmin: "3.1", diafmax: "3.1")
Lensmodel.create(brand: "Samyang", name: "8mm T3.8 AS IF UMC Fish-eye CS II VDSLR", afdrive: "0", ff: "0", fix: "1", mount: "E-mount", frmin: "8", frmax: "8", diafmin: "3.8", diafmax: "3.8")
Lensmodel.create(brand: "Sigma", name: "AF 19mm f/2.8 DN Art", afdrive: "1", ff: "0", fix: "1", mount: "E-mount", frmin: "19", frmax: "19", diafmin: "2.8", diafmax: "2.8")
Lensmodel.create(brand: "Sigma", name: "AF 30mm f/2.8 DN Art", afdrive: "1", ff: "0", fix: "1", mount: "E-mount", frmin: "30", frmax: "30", diafmin: "2.8", diafmax: "2.8")
Lensmodel.create(brand: "Sigma", name: "AF 30mm f/2.8 EX DN", afdrive: "1", ff: "0", fix: "1", mount: "E-mount", frmin: "30", frmax: "30", diafmin: "2.8", diafmax: "2.8")
Lensmodel.create(brand: "Sigma", name: "AF 60mm f/2.8 DN Art", afdrive: "1", ff: "0", fix: "1", mount: "E-mount", frmin: "60", frmax: "60", diafmin: "2.8", diafmax: "2.8")
Lensmodel.create(brand: "Tamron", name: "AF 18-200mm f/3.5-6.3 Di III VC", afdrive: "1", ff: "0", fix: "0", mount: "E-mount", frmin: "18", frmax: "200", diafmin: "3.5", diafmax: "6.3")
Lensmodel.create(brand: "Tamron", name: "SP AF 17-50mm f/2.8 XR Di II LD Aspherical (IF)", afdrive: "1", ff: "0", fix: "0", mount: "E-mount", frmin: "17", frmax: "50", diafmin: "2.8", diafmax: "2.8")
Lensmodel.create(brand: "Carl Zeiss", name: "Compact Prime CP.2 100/T2.1 CF", afdrive: "0", ff: "1", fix: "1", mount: "E-mount", frmin: "100", frmax: "100", diafmin: "2.1", diafmax: "2.1")
Lensmodel.create(brand: "Carl Zeiss", name: "Compact Prime CP.2 135/T2.1", afdrive: "0", ff: "1", fix: "1", mount: "E-mount", frmin: "135", frmax: "135", diafmin: "2.1", diafmax: "2.1")
Lensmodel.create(brand: "Carl Zeiss", name: "Compact Prime CP.2 15/T2.9", afdrive: "0", ff: "1", fix: "1", mount: "E-mount", frmin: "15", frmax: "15", diafmin: "2.9", diafmax: "2.9")
Lensmodel.create(brand: "Carl Zeiss", name: "Compact Prime CP.2 18/T3.6", afdrive: "0", ff: "1", fix: "1", mount: "E-mount", frmin: "18", frmax: "18", diafmin: "3.6", diafmax: "3.6")
Lensmodel.create(brand: "Carl Zeiss", name: "Compact Prime CP.2 25/T2.1", afdrive: "0", ff: "1", fix: "1", mount: "E-mount", frmin: "25", frmax: "25", diafmin: "2.1", diafmax: "2.1")
Lensmodel.create(brand: "Carl Zeiss", name: "Compact Prime CP.2 28/T2.1", afdrive: "0", ff: "1", fix: "1", mount: "E-mount", frmin: "28", frmax: "28", diafmin: "2.1", diafmax: "2.1")
Lensmodel.create(brand: "Carl Zeiss", name: "Compact Prime CP.2 35/T1.5 Super Speed", afdrive: "0", ff: "1", fix: "1", mount: "E-mount", frmin: "35", frmax: "35", diafmin: "1.5", diafmax: "1.5")
Lensmodel.create(brand: "Carl Zeiss", name: "Compact Prime CP.2 35/T2.1", afdrive: "0", ff: "1", fix: "1", mount: "E-mount", frmin: "35", frmax: "35", diafmin: "2.1", diafmax: "2.1")
Lensmodel.create(brand: "Carl Zeiss", name: "Compact Prime CP.2 50/T1.5 Super Speed", afdrive: "0", ff: "1", fix: "1", mount: "E-mount", frmin: "50", frmax: "50", diafmin: "1.5", diafmax: "1.5")
Lensmodel.create(brand: "Carl Zeiss", name: "Compact Prime CP.2 50/T2.1 Macro", afdrive: "0", ff: "1", fix: "1", mount: "E-mount", frmin: "50", frmax: "50", diafmin: "2.1", diafmax: "2.1")
Lensmodel.create(brand: "Carl Zeiss", name: "Compact Prime CP.2 50/T2.1", afdrive: "0", ff: "1", fix: "1", mount: "E-mount", frmin: "50", frmax: "50", diafmin: "2.1", diafmax: "2.1")
Lensmodel.create(brand: "Carl Zeiss", name: "Compact Prime CP.2 85/T1.5 Super Speed", afdrive: "0", ff: "1", fix: "1", mount: "E-mount", frmin: "85", frmax: "85", diafmin: "1.5", diafmax: "1.5")
Lensmodel.create(brand: "Carl Zeiss", name: "Compact Prime CP.2 85/T2.1", afdrive: "0", ff: "1", fix: "1", mount: "E-mount", frmin: "85", frmax: "85", diafmin: "2.1", diafmax: "2.1")
Lensmodel.create(brand: "Carl Zeiss", name: "Touit 1.8/32", afdrive: "1", ff: "0", fix: "1", mount: "E-mount", frmin: "32", frmax: "32", diafmin: "1.8", diafmax: "1.8")
Lensmodel.create(brand: "Carl Zeiss", name: "Touit 2.8/12", afdrive: "0", ff: "0", fix: "1", mount: "E-mount", frmin: "12", frmax: "12", diafmin: "2.8", diafmax: "2.8")
Lensmodel.create(brand: "Carl Zeiss", name: "Touit 2.8/50M", afdrive: "1", ff: "1", fix: "1", mount: "E-mount", frmin: "50", frmax: "50", diafmin: "2.8", diafmax: "2.8")





Cameramodel.create(brand: "SONY", name: "DSLR-a100", mount: "A-mount", ff: "")
Cameramodel.create(brand: "SONY", name: "DSLR-a200", mount: "A-mount", ff: "")
Cameramodel.create(brand: "SONY", name: "DSLR-a230", mount: "A-mount", ff: "")
Cameramodel.create(brand: "SONY", name: "DSLR-a290", mount: "A-mount", ff: "")
Cameramodel.create(brand: "SONY", name: "DSLR-a300", mount: "A-mount", ff: "")
Cameramodel.create(brand: "SONY", name: "DSLR-a330", mount: "A-mount", ff: "")
Cameramodel.create(brand: "SONY", name: "DSLR-a350", mount: "A-mount", ff: "")
Cameramodel.create(brand: "SONY", name: "DSLR-a380", mount: "A-mount", ff: "")
Cameramodel.create(brand: "SONY", name: "DSLR-a390", mount: "A-mount", ff: "")
Cameramodel.create(brand: "SONY", name: "DSLR-a450", mount: "A-mount", ff: "")
Cameramodel.create(brand: "SONY", name: "DSLR-a500", mount: "A-mount", ff: "")
Cameramodel.create(brand: "SONY", name: "DSLR-a550", mount: "A-mount", ff: "")
Cameramodel.create(brand: "SONY", name: "DSLR-a560", mount: "A-mount", ff: "")
Cameramodel.create(brand: "SONY", name: "DSLR-a580", mount: "A-mount", ff: "")
Cameramodel.create(brand: "SONY", name: "DSLR-a700", mount: "A-mount", ff: "")
Cameramodel.create(brand: "SONY", name: "DSLR-a850", mount: "A-mount", ff: "1")
Cameramodel.create(brand: "SONY", name: "DSLR-a900", mount: "A-mount", ff: "1")
Cameramodel.create(brand: "SONY", name: "SLT-a33",   mount: "A-mount", ff: "")
Cameramodel.create(brand: "SONY", name: "SLT-a35",   mount: "A-mount", ff: "")
Cameramodel.create(brand: "SONY", name: "SLT-a37",   mount: "A-mount", ff: "")
Cameramodel.create(brand: "SONY", name: "SLT-a55",   mount: "A-mount", ff: "")
Cameramodel.create(brand: "SONY", name: "SLT-a57",   mount: "A-mount", ff: "")
Cameramodel.create(brand: "SONY", name: "SLT-a58",   mount: "A-mount", ff: "")
Cameramodel.create(brand: "SONY", name: "SLT-a65",   mount: "A-mount", ff: "")
Cameramodel.create(brand: "SONY", name: "SLT-a77",   mount: "A-mount", ff: "")
Cameramodel.create(brand: "SONY", name: "SLT-a77 II", mount: "A-mount", ff: "")
Cameramodel.create(brand: "SONY", name: "SLT-a99",   mount: "A-mount", ff: "1")
Cameramodel.create(brand: "SONY", name: "NEX-3",     mount: "E-mount", ff: "")
Cameramodel.create(brand: "SONY", name: "NEX-C3",    mount: "E-mount", ff: "")
Cameramodel.create(brand: "SONY", name: "NEX-F3",    mount: "E-mount", ff: "")
Cameramodel.create(brand: "SONY", name: "NEX-3N",    mount: "E-mount", ff: "")
Cameramodel.create(brand: "SONY", name: "NEX-5",     mount: "E-mount", ff: "")
Cameramodel.create(brand: "SONY", name: "NEX-5N",    mount: "E-mount", ff: "")
Cameramodel.create(brand: "SONY", name: "NEX-5R",    mount: "E-mount", ff: "")
Cameramodel.create(brand: "SONY", name: "NEX-5T",    mount: "E-mount", ff: "")
Cameramodel.create(brand: "SONY", name: "NEX-6",     mount: "E-mount", ff: "")
Cameramodel.create(brand: "SONY", name: "NEX-7",     mount: "E-mount", ff: "")
Cameramodel.create(brand: "SONY", name: "a3000",     mount: "E-mount", ff: "")
Cameramodel.create(brand: "SONY", name: "a3500",     mount: "E-mount", ff: "")
Cameramodel.create(brand: "SONY", name: "a5000",     mount: "E-mount", ff: "")
Cameramodel.create(brand: "SONY", name: "a5100",     mount: "E-mount", ff: "")
Cameramodel.create(brand: "SONY", name: "a6000",     mount: "E-mount", ff: "")
Cameramodel.create(brand: "SONY", name: "7",         mount: "E-mount", ff: "1")
Cameramodel.create(brand: "SONY", name: "7R",        mount: "E-mount", ff: "1")
Cameramodel.create(brand: "SONY", name: "7S",        mount: "E-mount", ff: "1")
Cameramodel.create(brand: "SONY", name: "7 II",      mount: "E-mount", ff: "1")
Cameramodel.create(brand: "SONY", name: "7R II",     mount: "E-mount", ff: "1")
Cameramodel.create(brand: "SONY", name: "7S II",     mount: "E-mount", ff: "1")

